…
  * `V` : 瞬時速度 `dp_um` の平均。常に正の値であり、これは大きさです。単位は µm/s。
  * `Vx` : x位置の数値微分の平均。正または負の値になる可能性があります。単位は µm/s。
  * `Vy` : y位置の数値微分の平均。正または負の値になる可能性があります。単位は µm/s。
  * `Area_um_mean` : マイクロボットの面積の平均。単位は µm^2。
  * `Ω_est` : リンクデータの `Major_um` 列のFFTから抽出された推定回転率。[`estimate_omega`](@ref) 関数を使用して実行されます。単位は Hz。
  * `R` : バウンディングサークルの半径/回転半径。主要軸 `Major_um` の95パーセンタイルを2で割った値として計算されます。単位は µm。
  * `Circularity` : フィットした楕円のアスペクト比に基づく定量化。ImageJ から計算されます。詳細は [their docs](https://imagej.nih.gov/ij/docs/menus/analyze.html) を参照してください。単位なし。
  * `total_displacement_um` : マイクロボットの *全軌跡* にわたる総移動量。これはすでに `linked_data` で一定であるため、値の1つを取るだけです。単位は µm。

# 例

```julia-repl
julia> collapse_data(linked_data, translation_dict)
37×13 DataFrame
 Row │ particle_unique  filename      V          Vx           Vy           Area_um_mean  Ω_est      R         Circularity  total_displacement_um  B_mT     FPS      f_Hz  
     │ String15         String15      Float64    Float64      Float64      Float64       Float64    Float64   Float64      Float64                Float64  Float64  Int64
─────┼────────────────────────────────────────────────────────────────────────────────────────────────────────────────────────────────────────────────────────────────────
   1 │ 5_13p5_61p35-0   5_13p5_61p35  88.7683    73.1812      -0.533202       524.844    0.0866525  28.8823      0.466515            425.447         13.5    61.35      5
   2 │ 5_13p5_61p35-1   5_13p5_61p35  84.2168    75.1932      -1.43098        723.553    0.184789   37.7608      0.447464            204.647         13.5    61.35      5
   3 │ 5_13p5_61p35-2   5_13p5_61p35  34.589     25.285        3.95886         66.7345   4.94208    12.1932      0.706898            151.268         13.5    61.35      5
   4 │ 5_13p5_61p35-3   5_13p5_61p35  61.7119    51.8247      -3.01578         80.8338   5.06137    14.7728      0.647094            170.821         13.5    61.35      5
   5 │ 5_13p5_61p35-4   5_13p5_61p35  20.6538     7.68584      0.0244971       23.9995   2.51434     2.91041     0.984024             15.7076        13.5    61.35      5
   6 │ 5_13p5_61p35-5   5_13p5_61p35  21.9972     7.1295      -0.320993        24.6687   2.48485     2.94544     0.98336              41.961         13.5    61.35      5
   7 │ 5_13p5_61p35-6   5_13p5_61p35  22.2261     6.78449     -0.353836        24.5469   2.47104     2.94414     0.982008             40.0362        13.5    61.35      5
   8 │ 5_13p5_61p35-7   5_13p5_61p35  22.2123     6.55907      0.46061         24.4111   2.46496     2.94133     0.983553             36.1651        13.5    61.35      5
  ⋮  │        ⋮              ⋮            ⋮           ⋮            ⋮            ⋮            ⋮         ⋮           ⋮                 ⋮               ⋮        ⋮       ⋮
  31 │ 5_8p4_28p68-9    5_8p4_28p68   40.4129    15.381       35.4248          85.391    5.28316    14.6976      0.628366             54.0731         8.4    28.68      5
  32 │ 5_8p4_28p68-10   5_8p4_28p68   40.729     20.3822      33.0557         566.571    1.88684    26.3958      0.491463             54.3218         8.4    28.68      5
  33 │ 5_8p4_28p68-11   5_8p4_28p68   41.6894    18.5982      35.8152         707.16     1.50947    28.0554      0.509829             56.0121         8.4    28.68      5
  34 │ 5_8p4_28p68-12   5_8p4_28p68    0.700078  -0.0662316   -0.00804089      21.3812   2.64158     2.94514     0.96161               0.0593394      8.4    28.68      5
  35 │ 5_8p4_28p68-13   5_8p4_28p68   39.0276    18.1646      31.7101         660.916    1.50947    27.9988      0.504366             51.1676         8.4    28.68      5
  36 │ 5_8p4_28p68-14   5_8p4_28p68   12.5579    -0.761769     0.545299        15.3284   0.377368    2.89432     0.917512              1.12274        8.4    28.68      5
  37 │ 5_8p4_28p68-15   5_8p4_28p68   47.225     17.9276      40.9265         152.034    5.28316    19.533       0.609                62.9841         8.4    28.68      5
                                                                                                                                                           22 rows omitted
```
