```julia
fit(formula::FormulaTerm, data::DataFrame, modelClass::LogisticRegression, Link::CRRaoLink, prior::Prior_TDist, h::Float64 = 1.0, level::Float64 = 0.95, sim_size::Int64 = 1000)
```

入力データに対して、提供された `Link` 関数を用いた T-Dist プライヤーでベイジアンロジスティック回帰モデルをフィットします。

# 例

```julia-repl
julia> using CRRao, RDatasets, StableRNGs, StatsModels
julia> CRRao.set_rng(StableRNG(123))
StableRNGs.LehmerRNG(state=0x000000000000000000000000000000f7)
julia> turnout = dataset("Zelig", "turnout")
2000×5 DataFrame
  Row │ Race   Age    Educate  Income   Vote  
      │ Cat…   Int32  Float64  Float64  Int32 
──────┼───────────────────────────────────────
    1 │ white     60     14.0   3.3458      1
    2 │ white     51     10.0   1.8561      0
    3 │ white     24     12.0   0.6304      0
    4 │ white     38      8.0   3.4183      1
  ⋮   │   ⋮      ⋮       ⋮        ⋮       ⋮
 1998 │ white     51     16.0   7.8949      1
 1999 │ white     22     10.0   2.4811      0
 2000 │ white     59     10.0   0.5523      0
                             1993 rows omitted
…
