…
GBIF `species` APIをクエリし、単一の`Species`を返します。

  * `key`: 種のキー、またはキーを取得できる別の検索からの`Species`オブジェクト。
  * `resulttype`: これを設定すると、`Species`の代わりに、`species`は`(:verbatim, :name, :parents, :children, :related, :synonyms, :combinations, :descriptions, :distributions, :media, :references, :speciesProfiles, :vernacularNames, :typeSpecimens)`のいずれかのオブジェクトを返します。返される値は生の`JSON3.Object`ですが、その`propertynames`を確認してデータにアクセスするために使用できます。

# 例

ここでは、`species_search`を使用して種を見つけ、その後`species`で完全なレコードを取得します。

```julia
julia> using GBIF2
julia> tbl = species_search("Falco punctatus")
20-element GBIF2.Table{GBIF2.Species, JSON3.Array{JSON3.Object, Vector{UInt8}, SubArray{
UInt64, 1, Vector{UInt64}, Tuple{UnitRange{Int64}}, true}}}
┌──────────┬──────────┬───────────────┬───────────────┬────────────┬─────────┬──────────
│  kingdom │   phylum │         class │         order │     family │   genus │         ⋯
│  String? │  String? │       String? │       String? │    String? │ String? │         ⋯
├──────────┼──────────┼───────────────┼───────────────┼────────────┼─────────┼──────────
│ Animalia │  missing │          Aves │ Falconiformes │ Falconidae │ missing │ Falco p ⋯
│ Animalia │  missing │          Aves │       missing │ Falconidae │   Falco │ Falco p ⋯
│  missing │  missing │          Aves │ Falconiformes │ Falconidae │   Falco │ Falco p ⋯
│  missing │ Chordata │       missing │       missing │ Falconidae │   Falco │ Falco p ⋯
│ Animalia │ Chordata │          Aves │ Falconiformes │ Falconidae │   Falco │ Falco p ⋯
│ Animalia │ Chordata │          Aves │ Falconiformes │ Falconidae │   Falco │ Falco p ⋯
│  Metazoa │ Chordata │          Aves │ Falconiformes │ Falconidae │   Falco │ Falco p ⋯
│ Animalia │  missing │       missing │ Falconiformes │ Falconidae │ missing │ Falco p ⋯
│  Metazoa │ Chordata │          Aves │ Falconiformes │ Falconidae │   Falco │ Falco p ⋯
│    ⋮     │    ⋮     │       ⋮       │       ⋮       │     ⋮      │    ⋮    │         ⋱
└──────────┴──────────┴───────────────┴───────────────┴────────────┴─────────┴──────────
                                                           35 columns and 11 rows omitted
…
