```
allelefreqtable(data::PopData; by::Union{Symbol,String} = "global")
```

Return a table of the observed `global` (default) or `population` allele frequencies in a PopData object.

### Example:

```
julia> cats = @nancycats ;

julia> allelefreqtable(cats)
108×4 DataFrame
 Row │ locus   allele  count  frequency  
     │ String  Int16?  Int64  Float64    
─────┼───────────────────────────────────
   1 │ fca8       135    105  0.241935
   2 │ fca8       143     44  0.101382
   3 │ fca8       133     33  0.0760369
   4 │ fca8       137     83  0.191244
  ⋮  │   ⋮       ⋮       ⋮        ⋮
 105 │ fca37      226      2  0.00421941
 106 │ fca37      216      7  0.0147679
 107 │ fca37      224      2  0.00421941
 108 │ fca37      204      6  0.0126582
                         100 rows omitted

julia> allelefreqtable(cats, by = "population")
839×5 DataFrame
 Row │ locus   population  allele  count  frequency 
     │ String  String      Int16?  Int64  Float64   
─────┼──────────────────────────────────────────────
   1 │ fca8    1              135      9  0.5625
   2 │ fca8    1              143      4  0.25
   3 │ fca8    1              133      2  0.125
   4 │ fca8    1              137      1  0.0625
  ⋮  │   ⋮         ⋮         ⋮       ⋮        ⋮
 836 │ fca37   16             210      5  0.208333
 837 │ fca37   17             208     22  0.846154
 838 │ fca37   17             182      3  0.115385
 839 │ fca37   17             220      1  0.0384615
                                    831 rows omitted
```
