```julia
fit(formula::FormulaTerm, data::DataFrame, modelClass::PoissonRegression, prior::Prior_TDist, h::Float64 = 2.0, sim_size::Int64 = 1000)
```

Fit a Bayesian Poisson Regression model on the input data with a t(ν) distributed prior.

# Example

```julia-repl
julia> using CRRao, RDatasets, StableRNGs, StatsModels
julia> CRRao.set_rng(StableRNG(123))
StableRNGs.LehmerRNG(state=0x000000000000000000000000000000f7)
julia> sanction = dataset("Zelig", "sanction")
78×8 DataFrame
 Row │ Mil    Coop   Target  Import  Export  Cost   Num    NCost         
     │ Int32  Int32  Int32   Int32   Int32   Int32  Int32  Cat…          
─────┼───────────────────────────────────────────────────────────────────
   1 │     1      4       3       1       1      4     15  major loss
   2 │     0      2       3       0       1      3      4  modest loss
   3 │     0      1       3       1       0      2      1  little effect
   4 │     1      1       3       1       1      2      1  little effect
  ⋮  │   ⋮      ⋮      ⋮       ⋮       ⋮       ⋮      ⋮          ⋮
  76 │     0      4       3       1       0      2     13  little effect
  77 │     0      1       2       0       0      1      1  net gain
  78 │     1      3       1       1       1      2     10  little effect
71 rows omitted
…
