…
奇数プロイディ（3,5など）の子孫を作成しようとする場合、各親はすべての遺伝子座に対して（½ × プロイディ） + 1アレルを子孫に寄与する50％の確率を持ちます。言い換えれば、プロイディ = 3の場合、親_1がそのシミュレートされた交差のすべての遺伝子座に対して2つのアレルを与える50％の確率があります。

**例**

```
julia> cats = @nanycats ;

julia> cat_sims = simulatekin(cats, fullsib = 10, halfsib = 50)
PopData{Diploid, 9 Microsatellite loci}
  Samples: 120
  Populations: 2

julia> cat_sims.sampleinfo
120×3 DataFrame
 Row │ name             population  ploidy 
     │ String           String      Int64  
─────┼─────────────────────────────────────
   1 │ sim01_fullsib_1  fullsib          2
   2 │ sim01_fullsib_2  fullsib          2
   3 │ sim02_fullsib_1  fullsib          2
   4 │ sim02_fullsib_2  fullsib          2
   5 │ sim03_fullsib_1  fullsib          2
   6 │ sim03_fullsib_2  fullsib          2
  ⋮  │        ⋮             ⋮         ⋮
 115 │ sim48_halfsib_1  halfsib          2
 116 │ sim48_halfsib_2  halfsib          2
 117 │ sim49_halfsib_1  halfsib          2
 118 │ sim49_halfsib_2  halfsib          2
 119 │ sim50_halfsib_1  halfsib          2
 120 │ sim50_halfsib_2  halfsib          2
                           108 rows omitted
```
