…
julia> noise = PinkNoise(; noiselevel = 0.2);

# Variant 1: Use a custom RNG.
julia> data, events = simulate(MersenneTwister(2), design, component, onset, noise);

julia> data
293-element Vector{Float64}:
 -0.013583193323430123
  0.09159433856866195
  ⋮
 -0.25190584567097907
 -0.20179992275876316

julia> events
20×2 DataFrame
 Row │ cond_A   latency 
     │ String   Int64   
─────┼──────────────────
   1 │ level_A        9
   2 │ level_B       20
   3 │ level_A       27
   4 │ level_B       37
  ⋮  │    ⋮        ⋮
  18 │ level_B      257
  19 │ level_A      271
  20 │ level_B      284
         13 rows omitted
…
