…
Query the GBIF `species/search` api, returning many results in a [`GBIF2.Table`](@ref).

# Example

```julia
using GBIF2
sp = species_search("Psittacula eques")

# output
20-element GBIF2.Table{GBIF2.Species, JSON3.Array{JSON3.Object, Vector{UInt8}, SubArray{UInt64, 1,
Vector{UInt64}, Tuple{UnitRange{Int64}}, true}}}
┌──────────┬──────────┬────────────────┬────────────────┬───────────────┬──────────────┬──
│  kingdom │   phylum │          class │          order │        family │        genus │ ⋯
│  String? │  String? │        String? │        String? │       String? │      String? │ ⋯
├──────────┼──────────┼────────────────┼────────────────┼───────────────┼──────────────┼──
│ Animalia │ Chordata │           Aves │ Psittaciformes │ Psittaculidae │   Psittacula │ ⋯
│ Animalia │  missing │           Aves │ Psittaciformes │ Psittaculidae │      missing │ ⋯
│  Metazoa │ Chordata │           Aves │ Psittaciformes │   Psittacidae │   Psittacula │ ⋯
│ Animalia │  missing │           Aves │ Psittaciformes │ Psittaculidae │      missing │ ⋯
│ Animalia │  missing │           Aves │ Psittaciformes │ Psittaculidae │      missing │ ⋯
│ Animalia │  missing │        missing │ Psittaciformes │ Psittaculidae │      missing │ ⋯
│  Metazoa │ Chordata │           Aves │ Psittaciformes │   Psittacidae │   Psittacula │ ⋯
│  missing │  missing │        missing │        missing │       missing │   Psittacula │ ⋯
│ Animalia │ Chordata │           Aves │ Psittaciformes │ Psittaculidae │   Psittacula │ ⋯
│ Animalia │  missing │           Aves │        missing │   Psittacidae │   Psittacula │ ⋯
│  Metazoa │ Chordata │           Aves │ Psittaciformes │   Psittacidae │   Psittacula │ ⋯
│ Animalia │ Chordata │           Aves │ Psittaciformes │ Psittaculidae │   Psittacula │ ⋯
│ ANIMALIA │ CHORDATA │ PSITTACIFORMES │           AVES │   PSITTACIDAE │ Alexandrinus │ ⋯
│  Metazoa │ Chordata │           Aves │ Psittaciformes │   Psittacidae │   Psittacula │ ⋯
│ Animalia │ Chordata │           Aves │ Psittaciformes │   Psittacidae │   Psittacula │ ⋯
│ Animalia │  missing │           Aves │ Psittaciformes │ Psittaculidae │   Psittacula │ ⋯
│    ⋮     │    ⋮     │       ⋮        │       ⋮        │       ⋮       │      ⋮       │ ⋱
└──────────┴──────────┴────────────────┴────────────────┴───────────────┴──────────────┴──
                                                              37 columns and 4 rows omitted
```
…
