…
julia> long = stack(wide)
18×4 DataFrame
 Row │ id     a      variable  value
     │ Int64  Int64  String    Float64
─────┼─────────────────────────────────
   1 │     1      1  b             1.0
   2 │     2      1  b             1.0
   3 │     3      2  b             1.0
   4 │     4      2  b             2.0
   5 │     5      3  b             2.0
   6 │     6      3  b             2.0
   7 │     1      1  c             1.0
   8 │     2      1  c             1.0
  ⋮  │   ⋮      ⋮       ⋮         ⋮
  12 │     6      3  c             1.0
  13 │     1      1  d             1.0
  14 │     2      1  d             1.0
  15 │     3      2  d             2.0
  16 │     4      2  d             2.0
  17 │     5      3  d             3.0
  18 │     6      3  d             3.0
                         3 rows omitted
…
