…
julia> design =
           SingleSubjectDesign(;
               conditions = Dict(
                   :stimulus_type => ["natural", "artificial"],
                   :contrast_level => range(0, 1, length = 5),
               ),
           )
SingleSubjectDesign
  conditions: Dict{Symbol, Vector}
  event_order_function: #10 (function of type UnfoldSim.var"#10#14")

julia> generate_events(StableRNG(1), design)
10×2 DataFrame
 Row │ contrast_level  stimulus_type 
     │ Float64         String        
─────┼───────────────────────────────
   1 │           0.0   natural
   2 │           0.25  natural
   3 │           0.5   natural
  ⋮  │       ⋮               ⋮
   8 │           0.5   artificial
   9 │           0.75  artificial
  10 │           1.0   artificial
                       4 rows omitted
```
…
