…
ここでは `species_match` を使用して種を見つけ、その後 `occurrence_search` で全ての発生を取得します。

```julia
julia> 
using GBIF2

julia> 
sp = species_match("Falco punctatus");

julia> 
ocs = occurrence_search(sp; continent=:AFRICA, limit=1000)
[ Info: 522 occurrences found, limit was 1000
522-element GBIF2.Table{GBIF2.Occurrence, Vector{JSON3.Object}}
┌──────────────────┬─────────────────┬────────┬────────┬────────┬────────────
│ decimalLongitude │ decimalLatitude │   year │  month │    day │  kingdom  ⋯
│         Float64? │        Float64? │ Int64? │ Int64? │ Int64? │  String?  ⋯
├──────────────────┼─────────────────┼────────┼────────┼────────┼────────────
│          missing │         missing │   2012 │      8 │     18 │ Animalia  ⋯
│          missing │         missing │   2010 │      1 │     29 │ Animalia  ⋯
│          57.2452 │        -20.2239 │   2009 │     10 │     26 │ Animalia  ⋯
│          57.2452 │        -20.2239 │   2009 │     11 │      5 │ Animalia  ⋯
│          57.2452 │        -20.2239 │   2009 │     11 │      5 │ Animalia  ⋯
│          57.2452 │        -20.2239 │   2009 │     11 │      4 │ Animalia  ⋯
│          57.2452 │        -20.2239 │   2009 │     11 │      5 │ Animalia  ⋯
│          57.2452 │        -20.2239 │   2009 │     11 │      4 │ Animalia  ⋯
│          57.7667 │          -19.85 │   2007 │      6 │     19 │ Animalia  ⋯
│          57.7667 │          -19.85 │   2007 │      6 │     19 │ Animalia  ⋯
│          57.7667 │          -19.85 │   2007 │      6 │     19 │ Animalia  ⋯
│          57.7667 │          -19.85 │   2007 │      6 │     19 │ Animalia  ⋯
│          57.7667 │          -19.85 │   2007 │      6 │     19 │ Animalia  ⋯
│          57.7667 │          -19.85 │   2007 │      6 │     19 │ Animalia  ⋯
│          57.7667 │          -19.85 │   2007 │      6 │     19 │ Animalia  ⋯
│        ⋮         │        ⋮        │   ⋮    │   ⋮    │   ⋮    │    ⋮      ⋱
└──────────────────┴─────────────────┴────────┴────────┴────────┴────────────
                                              78 columns and 507 rows omitted
```
…
