…
パッケージに付属の入力ファイルを使用してテストジョブを実行します。

```jldoctest
julia> using RankCompV3
# 以下の他のパラメータのデフォルト値を使用します。パラメータを変更する必要がある場合は、直接追加してください。
julia> result = reoa(use_testdata="yes")
```

分析結果といくつかのプロットが生成され、現在の作業ディレクトリに保存されます。また、`reoa`関数によって返され、返された値を変数に割り当てることでキャプチャできます。上記の例では`result`です。

最初の返り値はDataFrameで、行は遺伝子、列は各遺伝子の統計値です。基本的な前処理ステップを通過したすべての遺伝子が保持されます。

```jldoctest
julia> result
19999×2 DataFrame
   Row │ gene_name  group1_vs_group2
       │ Any        Any
───────┼─────────────────────────────
     1 │ DE1        up
     2 │ DE2        up
     3 │ DE3        up
     4 │ DE4        up
     5 │ DE5        up
     6 │ DE6        up
   ⋮   │     ⋮             ⋮
 19995 │ EE19996    up
 19996 │ EE19997    up
 19997 │ EE19998    up
 19998 │ EE19999    up
 19999 │ EE20000    up
                   19988 rows omitted
```
…
