…
# Returns

A `Tables.columntable` containing all labelled signatures or their aggregation if `agg` is provided.

# Example

```julia
julia> src = Landsat8("LC08_L2SP_043024_20200802_20200914_02_T1/");

julia> sr = decode(Landsat8, RasterStack(src, [:B1, :B2, :B3, :B4, :B5]));

julia> shp = GeoDataFrames.read("data/landcover/landcover.shp");

julia> extract_signatures(sr, shp, :C_name) |> DataFrame
1925×6 DataFrame
  Row │ label      B1         B2         B3        B4        B5       
      │ String     Float32    Float32    Float32   Float32   Float32  
──────┼───────────────────────────────────────────────────────────────
    1 │ Hail Scar  0.058005   0.10613    0.19028   0.25177   0.51577
    2 │ Hail Scar  0.057895   0.10888    0.19358   0.257215  0.520198
    3 │ Hail Scar  0.06026    0.111795   0.197265  0.263045  0.523855
    4 │ Hail Scar  0.0595175  0.109375   0.195257  0.258315  0.522287
    5 │ Hail Scar  0.059215   0.108468   0.191655  0.254327  0.51401
  ⋮   │     ⋮          ⋮          ⋮         ⋮         ⋮         ⋮
 1921 │ Built Up   0.0633125  0.0914725  0.145565  0.165227  0.255153
 1922 │ Built Up   0.0764025  0.100878   0.154392  0.176063  0.24363
 1923 │ Built Up   0.09788    0.126342   0.180738  0.19941   0.25958
 1924 │ Built Up   0.0973025  0.133163   0.1894    0.198475  0.278775
 1925 │ Built Up   0.06345    0.089685   0.145042  0.158243  0.272505
                                                     1915 rows omitted
…
