…
julia> generate_events(StableRNG(1), design)
150×3 DataFrame
 Row │ subject  cond    item   
     │ String   String  String 
─────┼─────────────────────────
   1 │ S01      levelA  I01
   2 │ S01      levelA  I03
   3 │ S01      levelA  I05
  ⋮  │    ⋮       ⋮       ⋮
 148 │ S30      levelB  I06
 149 │ S30      levelB  I08
 150 │ S30      levelB  I10
               144 rows omitted
```
…
